Verification_sv/03.COUNTERS/01.JHONSON_COUNTER/Asynchronous reset/output.txt

Parsing design file 'design.sv'
Parsing design file 'testbench.sv'
Parsing included file 'transaction.sv'.
Back to file 'testbench.sv'.
Parsing included file 'interface.sv'.
Back to file 'testbench.sv'.
Parsing included file 'generator.sv'.
Back to file 'testbench.sv'.
Parsing included file 'driver.sv'.
Back to file 'testbench.sv'.
Parsing included file 'monitor.sv'.
Back to file 'testbench.sv'.
Parsing included file 'scoreboard.sv'.
Back to file 'testbench.sv'.
Parsing included file 'environment.sv'.
Back to file 'testbench.sv'.
Top Level Modules:
       testbench
TimeScale is 1 ns / 1 ns

Warning-[INTFDV] VCD dumping of interface/program/package
testbench.sv, 22
  Selective VCD dumping of interface 'jc_itf' is not supported.  Selective VCD
  dumping for interfaces, packages and programs is not supported.
  Use full VCD dumping '$dumpvars(0)', or use VPD or FSDB dumping, recompile 
  with '-debug_access'.

Starting vcs inline pass...
4 modules and 0 UDP read.
recompiling package vcs_paramclassrepository
recompiling module jhonson_counter
recompiling module jc_itf
recompiling module testbench
All of 4 modules done
rm -f _cuarc*.so _csrc*.so pre_vcsobj_*.so share_vcsobj_*.so
if [ -x ../simv ]; then chmod a-x ../simv; fi
g++  -o ../simv      -rdynamic  -Wl,-rpath='$ORIGIN'/simv.daidir -Wl,-rpath=./simv.daidir -Wl,-rpath=/apps/vcsmx/vcs/X-2025.06-SP1/linux64/lib -L/apps/vcsmx/vcs/X-2025.06-SP1/linux64/lib  -Wl,-rpath-link=./   objs/amcQw_d.o  _286_archive_1.so  SIM_l.o       rmapats_mop.o rmapats.o rmar.o rmar_nd.o  rmar_llvm_0_1.o rmar_llvm_0_0.o            -lvirsim -lerrorinf -lsnpsmalloc -lvfs      -lvcsnew -ldistsimclient -lsimprofile -luclinative /apps/vcsmx/vcs/X-2025.06-SP1/linux64/lib/vcs_tls.o   -Wl,-whole-archive  -lvcsucli    -Wl,-no-whole-archive          /apps/vcsmx/vcs/X-2025.06-SP1/linux64/lib/vcs_save_restore_new.o -ldl  -lc -lm -lpthread -ldl 
../simv up to date
CPU time: .754 seconds to compile + .795 seconds to elab + .422 seconds to link
Chronologic VCS simulator copyright 1991-2025
Contains Synopsys proprietary information.
Compiler version X-2025.06-SP1_Full64; Runtime version X-2025.06-SP1_Full64;  May 17 23:37 2026
===========================================================================
                   VERIFICATION JHONSON COUNTER IN SV                      
===========================================================================
[time=16] MONITOR: rst=1 q=0000 
[time=16] Actual_q =0000   Expected_q=0000
  PASS 
=========================================================================
[time=26] MONITOR: rst=1 q=0000 
[time=26] Actual_q =0000   Expected_q=0000
  PASS 
=========================================================================
[time=36] MONITOR: rst=1 q=0000 
[time=36] Actual_q =0000   Expected_q=0000
  PASS 
=========================================================================
[time=46] MONITOR: rst=1 q=0000 
[time=46] Actual_q =0000   Expected_q=0000
  PASS 
=========================================================================
[time=56] MONITOR: rst=1 q=0000 
[time=56] Actual_q =0000   Expected_q=0000
  PASS 
=========================================================================
[time=66] MONITOR: rst=1 q=0000 
[time=66] Actual_q =0000   Expected_q=0000
  PASS 
=========================================================================
[time=75] DRIVER: rst=0 
[time=76] MONITOR: rst=1 q=0000 
[time=76] Actual_q =0000   Expected_q=0000
  PASS 
=========================================================================
[time=86] MONITOR: rst=1 q=0000 
[time=86] Actual_q =0000   Expected_q=0000
  PASS 
=========================================================================
[time=92] DRIVER: rst=0 
[time=96] MONITOR: rst=0 q=0001 
[time=96] Actual_q =0001   Expected_q=0001
  PASS 
=========================================================================
[time=106] MONITOR: rst=0 q=0011 
[time=106] Actual_q =0011   Expected_q=0011
  PASS 
=========================================================================
[time=116] MONITOR: rst=0 q=0111 
[time=116] Actual_q =0111   Expected_q=0111
  PASS 
=========================================================================
[time=126] MONITOR: rst=0 q=1111 
[time=126] Actual_q =1111   Expected_q=1111
  PASS 
=========================================================================
[time=136] MONITOR: rst=0 q=1110 
[time=136] Actual_q =1110   Expected_q=1110
  PASS 
=========================================================================
[time=146] MONITOR: rst=0 q=1100 
[time=146] Actual_q =1100   Expected_q=1100
  PASS 
=========================================================================
[time=156] MONITOR: rst=0 q=1000 
[time=156] Actual_q =1000   Expected_q=1000
  PASS 
=========================================================================
[time=166] MONITOR: rst=0 q=0000 
[time=166] Actual_q =0000   Expected_q=0000
  PASS 
=========================================================================
[time=168] DRIVER: rst=0 
[time=169] MONITOR: rst=1 q=0000 
[time=169] Actual_q =0000   Expected_q=0000
  PASS 
=========================================================================
[time=176] MONITOR: rst=1 q=0000 
[time=176] Actual_q =0000   Expected_q=0000
  PASS 
=========================================================================
[time=186] MONITOR: rst=1 q=0000 
[time=186] Actual_q =0000   Expected_q=0000
  PASS 
=========================================================================
[time=188] DRIVER: rst=0 
[time=196] MONITOR: rst=0 q=0001 
[time=196] Actual_q =0001   Expected_q=0001
  PASS 
=========================================================================
[time=206] MONITOR: rst=0 q=0011 
[time=206] Actual_q =0011   Expected_q=0011
  PASS 
=========================================================================
[time=216] MONITOR: rst=0 q=0111 
[time=216] Actual_q =0111   Expected_q=0111
  PASS 
=========================================================================
[time=226] MONITOR: rst=0 q=1111 
[time=226] Actual_q =1111   Expected_q=1111
  PASS 
=========================================================================
[time=236] MONITOR: rst=0 q=1110 
[time=236] Actual_q =1110   Expected_q=1110
  PASS 
=========================================================================
[time=245] DRIVER: rst=0 
[time=246] MONITOR: rst=1 q=0000 
[time=246] Actual_q =0000   Expected_q=0000
  PASS 
=========================================================================
[time=256] MONITOR: rst=1 q=0000 
[time=256] Actual_q =0000   Expected_q=0000
  PASS 
=========================================================================
[time=263] DRIVER: rst=0 
[time=266] MONITOR: rst=0 q=0001 
[time=266] Actual_q =0001   Expected_q=0001
  PASS 
=========================================================================
[time=276] MONITOR: rst=0 q=0011 
[time=276] Actual_q =0011   Expected_q=0011
  PASS 
=========================================================================
[time=286] MONITOR: rst=0 q=0111 
[time=286] Actual_q =0111   Expected_q=0111
  PASS 
=========================================================================
[time=296] MONITOR: rst=0 q=1111 
[time=296] Actual_q =1111   Expected_q=1111
  PASS 
=========================================================================
[time=306] MONITOR: rst=0 q=1110 
[time=306] Actual_q =1110   Expected_q=1110
  PASS 
=========================================================================
[time=316] MONITOR: rst=0 q=1100 
[time=316] Actual_q =1100   Expected_q=1100
  PASS 
=========================================================================
[time=326] MONITOR: rst=0 q=1000 
[time=326] Actual_q =1000   Expected_q=1000
  PASS 
=========================================================================
[time=336] MONITOR: rst=0 q=0000 
[time=336] Actual_q =0000   Expected_q=0000
  PASS 
=========================================================================
[time=339] DRIVER: rst=0 
[time=340] MONITOR: rst=1 q=0000 
[time=340] Actual_q =0000   Expected_q=0000
  PASS 
=========================================================================
[time=346] MONITOR: rst=1 q=0000 
[time=346] Actual_q =0000   Expected_q=0000
  PASS 
=========================================================================
[time=356] MONITOR: rst=1 q=0000 
[time=356] Actual_q =0000   Expected_q=0000
  PASS 
=========================================================================
[time=359] DRIVER: rst=0 
[time=366] MONITOR: rst=0 q=0001 
[time=366] Actual_q =0001   Expected_q=0001
  PASS 
=========================================================================
[time=376] MONITOR: rst=0 q=0011 
[time=376] Actual_q =0011   Expected_q=0011
  PASS 
=========================================================================
[time=386] MONITOR: rst=0 q=0111 
[time=386] Actual_q =0111   Expected_q=0111
  PASS 
=========================================================================
[time=396] MONITOR: rst=0 q=1111 
[time=396] Actual_q =1111   Expected_q=1111
  PASS 
=========================================================================
[time=406] MONITOR: rst=0 q=1110 
[time=406] Actual_q =1110   Expected_q=1110
  PASS 
=========================================================================
[time=416] MONITOR: rst=0 q=1100 
[time=416] Actual_q =1100   Expected_q=1100
  PASS 
=========================================================================
[time=426] MONITOR: rst=0 q=1000 
[time=426] Actual_q =1000   Expected_q=1000
  PASS 
=========================================================================
[time=436] MONITOR: rst=0 q=0000 
[time=436] Actual_q =0000   Expected_q=0000
  PASS 
=========================================================================
[time=443] DRIVER: rst=0 
[time=444] MONITOR: rst=1 q=0000 
[time=444] Actual_q =0000   Expected_q=0000
  PASS 
=========================================================================
[time=446] MONITOR: rst=1 q=0000 
[time=446] Actual_q =0000   Expected_q=0000
  PASS 
=========================================================================
[time=453] DRIVER: rst=0 
[time=456] MONITOR: rst=0 q=0001 
[time=456] Actual_q =0001   Expected_q=0001
  PASS 
=========================================================================
[time=466] MONITOR: rst=0 q=0011 
[time=466] Actual_q =0011   Expected_q=0011
  PASS 
=========================================================================
[time=476] MONITOR: rst=0 q=0111 
[time=476] Actual_q =0111   Expected_q=0111
  PASS 
=========================================================================
[time=486] MONITOR: rst=0 q=1111 
[time=486] Actual_q =1111   Expected_q=1111
  PASS 
=========================================================================
[time=496] MONITOR: rst=0 q=1110 
[time=496] Actual_q =1110   Expected_q=1110
  PASS 
=========================================================================
[time=506] MONITOR: rst=0 q=1100 
[time=506] Actual_q =1100   Expected_q=1100
  PASS 
=========================================================================
[time=516] MONITOR: rst=0 q=1000 
[time=516] Actual_q =1000   Expected_q=1000
  PASS 
=========================================================================
[time=521] DRIVER: rst=0 
[time=522] MONITOR: rst=1 q=0000 
[time=522] Actual_q =0000   Expected_q=0000
  PASS 
=========================================================================
[time=526] MONITOR: rst=1 q=0000 
[time=526] Actual_q =0000   Expected_q=0000
  PASS 
=========================================================================
[time=533] DRIVER: rst=0 
[time=536] MONITOR: rst=0 q=0001 
[time=536] Actual_q =0001   Expected_q=0001
  PASS 
=========================================================================
[time=546] MONITOR: rst=0 q=0011 
[time=546] Actual_q =0011   Expected_q=0011
  PASS 
=========================================================================
[time=556] MONITOR: rst=0 q=0111 
[time=556] Actual_q =0111   Expected_q=0111
  PASS 
=========================================================================
[time=566] MONITOR: rst=0 q=1111 
[time=566] Actual_q =1111   Expected_q=1111
  PASS 
=========================================================================
[time=576] MONITOR: rst=0 q=1110 
[time=576] Actual_q =1110   Expected_q=1110
  PASS 
=========================================================================
[time=585] DRIVER: rst=0 
[time=586] MONITOR: rst=1 q=0000 
[time=586] Actual_q =0000   Expected_q=0000
  PASS 
=========================================================================
[time=596] MONITOR: rst=1 q=0000 
[time=596] Actual_q =0000   Expected_q=0000
  PASS 
=========================================================================
[time=600] DRIVER: rst=0 
[time=606] MONITOR: rst=0 q=0001 
[time=606] Actual_q =0001   Expected_q=0001
  PASS 
=========================================================================
[time=616] MONITOR: rst=0 q=0011 
[time=616] Actual_q =0011   Expected_q=0011
  PASS 
=========================================================================
[time=626] MONITOR: rst=0 q=0111 
[time=626] Actual_q =0111   Expected_q=0111
  PASS 
=========================================================================
[time=636] MONITOR: rst=0 q=1111 
[time=636] Actual_q =1111   Expected_q=1111
  PASS 
=========================================================================
[time=646] MONITOR: rst=0 q=1110 
[time=646] Actual_q =1110   Expected_q=1110
  PASS 
=========================================================================
[time=656] MONITOR: rst=0 q=1100 
[time=656] Actual_q =1100   Expected_q=1100
  PASS 
=========================================================================
[time=659] DRIVER: rst=0 
[time=660] MONITOR: rst=1 q=0000 
[time=660] Actual_q =0000   Expected_q=0000
  PASS 
=========================================================================
[time=666] MONITOR: rst=1 q=0000 
[time=666] Actual_q =0000   Expected_q=0000
  PASS 
=========================================================================
[time=676] DRIVER: rst=0 
[time=676] MONITOR: rst=1 q=0000 
[time=676] Actual_q =0000   Expected_q=0000
  PASS 
=========================================================================
[time=686] MONITOR: rst=0 q=0001 
[time=686] Actual_q =0001   Expected_q=0001
  PASS 
=========================================================================
[time=696] MONITOR: rst=0 q=0011 
[time=696] Actual_q =0011   Expected_q=0011
  PASS 
=========================================================================
[time=706] MONITOR: rst=0 q=0111 
[time=706] Actual_q =0111   Expected_q=0111
  PASS 
=========================================================================
[time=716] MONITOR: rst=0 q=1111 
[time=716] Actual_q =1111   Expected_q=1111
  PASS 
=========================================================================
[time=726] MONITOR: rst=0 q=1110 
[time=726] Actual_q =1110   Expected_q=1110
  PASS 
=========================================================================
[time=728] DRIVER: rst=0 
[time=729] MONITOR: rst=1 q=0000 
[time=729] Actual_q =0000   Expected_q=0000
  PASS 
=========================================================================
[time=736] MONITOR: rst=1 q=0000 
[time=736] Actual_q =0000   Expected_q=0000
  PASS 
=========================================================================
[time=742] DRIVER: rst=0 
[time=746] MONITOR: rst=0 q=0001 
[time=746] Actual_q =0001   Expected_q=0001
  PASS 
=========================================================================
[time=756] MONITOR: rst=0 q=0011 
[time=756] Actual_q =0011   Expected_q=0011
  PASS 
=========================================================================
[time=766] MONITOR: rst=0 q=0111 
[time=766] Actual_q =0111   Expected_q=0111
  PASS 
=========================================================================
[time=776] MONITOR: rst=0 q=1111 
[time=776] Actual_q =1111   Expected_q=1111
  PASS 
=========================================================================
[time=786] MONITOR: rst=0 q=1110 
[time=786] Actual_q =1110   Expected_q=1110
  PASS 
=========================================================================
[time=796] MONITOR: rst=0 q=1100 
[time=796] Actual_q =1100   Expected_q=1100
  PASS 
=========================================================================
[time=802] DRIVER: rst=0 
[time=803] MONITOR: rst=1 q=0000 
[time=803] Actual_q =0000   Expected_q=0000
  PASS 
=========================================================================
[time=806] MONITOR: rst=1 q=0000 
[time=806] Actual_q =0000   Expected_q=0000
  PASS 
=========================================================================
[time=813] DRIVER: rst=0 
[time=816] MONITOR: rst=0 q=0001 
[time=816] Actual_q =0001   Expected_q=0001
  PASS 
=========================================================================
[time=826] MONITOR: rst=0 q=0011 
[time=826] Actual_q =0011   Expected_q=0011
  PASS 
=========================================================================
[time=836] MONITOR: rst=0 q=0111 
[time=836] Actual_q =0111   Expected_q=0111
  PASS 
=========================================================================
[time=846] MONITOR: rst=0 q=1111 
[time=846] Actual_q =1111   Expected_q=1111
  PASS 
=========================================================================
[time=856] MONITOR: rst=0 q=1110 
[time=856] Actual_q =1110   Expected_q=1110
  PASS 
=========================================================================
[time=866] MONITOR: rst=0 q=1100 
[time=866] Actual_q =1100   Expected_q=1100
  PASS 
=========================================================================
[time=876] MONITOR: rst=0 q=1000 
[time=876] Actual_q =1000   Expected_q=1000
  PASS 
=========================================================================
[time=883] DRIVER: rst=0 
[time=884] MONITOR: rst=1 q=0000 
[time=884] Actual_q =0000   Expected_q=0000
  PASS 
=========================================================================
[time=886] MONITOR: rst=1 q=0000 
[time=886] Actual_q =0000   Expected_q=0000
  PASS 
=========================================================================
[time=895] DRIVER: rst=0 
[time=896] MONITOR: rst=0 q=0001 
[time=896] Actual_q =0001   Expected_q=0001
  PASS 
=========================================================================
[time=906] MONITOR: rst=0 q=0011 
[time=906] Actual_q =0011   Expected_q=0011
  PASS 
=========================================================================
[time=916] MONITOR: rst=0 q=0111 
[time=916] Actual_q =0111   Expected_q=0111
  PASS 
=========================================================================
[time=926] MONITOR: rst=0 q=1111 
[time=926] Actual_q =1111   Expected_q=1111
  PASS 
=========================================================================
[time=936] MONITOR: rst=0 q=1110 
[time=936] Actual_q =1110   Expected_q=1110
  PASS 
=========================================================================
[time=946] MONITOR: rst=0 q=1100 
[time=946] Actual_q =1100   Expected_q=1100
  PASS 
=========================================================================
[time=956] MONITOR: rst=0 q=1000 
[time=956] Actual_q =1000   Expected_q=1000
  PASS 
=========================================================================
[time=962] DRIVER: rst=0 
[time=963] MONITOR: rst=1 q=0000 
[time=963] Actual_q =0000   Expected_q=0000
  PASS 
=========================================================================
[time=966] MONITOR: rst=1 q=0000 
[time=966] Actual_q =0000   Expected_q=0000
  PASS 
=========================================================================
[time=974] DRIVER: rst=0 
[time=976] MONITOR: rst=0 q=0001 
[time=976] Actual_q =0001   Expected_q=0001
  PASS 
=========================================================================
[time=986] MONITOR: rst=0 q=0011 
[time=986] Actual_q =0011   Expected_q=0011
  PASS 
=========================================================================
[time=996] MONITOR: rst=0 q=0111 
[time=996] Actual_q =0111   Expected_q=0111
  PASS 
=========================================================================
[time=1006] MONITOR: rst=0 q=1111 
[time=1006] Actual_q =1111   Expected_q=1111
  PASS 
=========================================================================
[time=1016] MONITOR: rst=0 q=1110 
[time=1016] Actual_q =1110   Expected_q=1110
  PASS 
=========================================================================
[time=1026] MONITOR: rst=0 q=1100 
[time=1026] Actual_q =1100   Expected_q=1100
  PASS 
=========================================================================
[time=1031] DRIVER: rst=0 
[time=1032] MONITOR: rst=1 q=0000 
[time=1032] Actual_q =0000   Expected_q=0000
  PASS 
=========================================================================
[time=1036] MONITOR: rst=1 q=0000 
[time=1036] Actual_q =0000   Expected_q=0000
  PASS 
=========================================================================
[time=1042] DRIVER: rst=0 
[time=1046] MONITOR: rst=0 q=0001 
[time=1046] Actual_q =0001   Expected_q=0001
  PASS 
=========================================================================
[time=1056] MONITOR: rst=0 q=0011 
[time=1056] Actual_q =0011   Expected_q=0011
  PASS 
=========================================================================
[time=1066] MONITOR: rst=0 q=0111 
[time=1066] Actual_q =0111   Expected_q=0111
  PASS 
=========================================================================
[time=1076] MONITOR: rst=0 q=1111 
[time=1076] Actual_q =1111   Expected_q=1111
  PASS 
=========================================================================
[time=1086] MONITOR: rst=0 q=1110 
[time=1086] Actual_q =1110   Expected_q=1110
  PASS 
=========================================================================
[time=1096] MONITOR: rst=0 q=1100 
[time=1096] Actual_q =1100   Expected_q=1100
  PASS 
=========================================================================
[time=1106] MONITOR: rst=0 q=1000 
[time=1106] Actual_q =1000   Expected_q=1000
  PASS 
=========================================================================
[time=1116] MONITOR: rst=0 q=0000 
[time=1116] Actual_q =0000   Expected_q=0000
  PASS 
=========================================================================
[time=1126] MONITOR: rst=0 q=0001 
[time=1126] Actual_q =0001   Expected_q=0001
  PASS 
=========================================================================
[time=1131] DRIVER: rst=0 
[time=1132] MONITOR: rst=1 q=0000 
[time=1132] Actual_q =0000   Expected_q=0000
  PASS 
=========================================================================
[time=1136] MONITOR: rst=1 q=0000 
[time=1136] Actual_q =0000   Expected_q=0000
  PASS 
=========================================================================
[time=1146] MONITOR: rst=1 q=0000 
[time=1146] Actual_q =0000   Expected_q=0000
  PASS 
=========================================================================
[time=1151] DRIVER: rst=0 
[time=1156] MONITOR: rst=0 q=0001 
[time=1156] Actual_q =0001   Expected_q=0001
  PASS 
=========================================================================
[time=1166] MONITOR: rst=0 q=0011 
[time=1166] Actual_q =0011   Expected_q=0011
  PASS 
=========================================================================
[time=1176] MONITOR: rst=0 q=0111 
[time=1176] Actual_q =0111   Expected_q=0111
  PASS 
=========================================================================
[time=1186] MONITOR: rst=0 q=1111 
[time=1186] Actual_q =1111   Expected_q=1111
  PASS 
=========================================================================
[time=1196] MONITOR: rst=0 q=1110 
[time=1196] Actual_q =1110   Expected_q=1110
  PASS 
=========================================================================
[time=1205] DRIVER: rst=0 
[time=1206] MONITOR: rst=1 q=0000 
[time=1206] Actual_q =0000   Expected_q=0000
  PASS 
=========================================================================
[time=1215] DRIVER: rst=0 
[time=1216] MONITOR: rst=0 q=0001 
[time=1216] Actual_q =0001   Expected_q=0001
  PASS 
=========================================================================
[time=1226] MONITOR: rst=0 q=0011 
[time=1226] Actual_q =0011   Expected_q=0011
  PASS 
=========================================================================
[time=1236] MONITOR: rst=0 q=0111 
[time=1236] Actual_q =0111   Expected_q=0111
  PASS 
=========================================================================
[time=1246] MONITOR: rst=0 q=1111 
[time=1246] Actual_q =1111   Expected_q=1111
  PASS 
=========================================================================
[time=1256] MONITOR: rst=0 q=1110 
[time=1256] Actual_q =1110   Expected_q=1110
  PASS 
=========================================================================
[time=1266] MONITOR: rst=0 q=1100 
[time=1266] Actual_q =1100   Expected_q=1100
  PASS 
=========================================================================
[time=1272] DRIVER: rst=0 
[time=1273] MONITOR: rst=1 q=0000 
[time=1273] Actual_q =0000   Expected_q=0000
  PASS 
=========================================================================
[time=1276] MONITOR: rst=1 q=0000 
[time=1276] Actual_q =0000   Expected_q=0000
  PASS 
=========================================================================
[time=1286] MONITOR: rst=1 q=0000 
[time=1286] Actual_q =0000   Expected_q=0000
  PASS 
=========================================================================
[time=1292] DRIVER: rst=0 
[time=1296] MONITOR: rst=0 q=0001 
[time=1296] Actual_q =0001   Expected_q=0001
  PASS 
=========================================================================
[time=1306] MONITOR: rst=0 q=0011 
[time=1306] Actual_q =0011   Expected_q=0011
  PASS 
=========================================================================
[time=1316] MONITOR: rst=0 q=0111 
[time=1316] Actual_q =0111   Expected_q=0111
  PASS 
=========================================================================
[time=1326] MONITOR: rst=0 q=1111 
[time=1326] Actual_q =1111   Expected_q=1111
  PASS 
=========================================================================
[time=1336] MONITOR: rst=0 q=1110 
[time=1336] Actual_q =1110   Expected_q=1110
  PASS 
=========================================================================
[time=1346] MONITOR: rst=0 q=1100 
[time=1346] Actual_q =1100   Expected_q=1100
  PASS 
=========================================================================
[time=1355] DRIVER: rst=0 
[time=1356] MONITOR: rst=1 q=0000 
[time=1356] Actual_q =0000   Expected_q=0000
  PASS 
=========================================================================
[time=1366] MONITOR: rst=1 q=0000 
[time=1366] Actual_q =0000   Expected_q=0000
  PASS 
=========================================================================
[time=1370] DRIVER: rst=0 
[time=1376] MONITOR: rst=0 q=0001 
[time=1376] Actual_q =0001   Expected_q=0001
  PASS 
=========================================================================
[time=1386] MONITOR: rst=0 q=0011 
[time=1386] Actual_q =0011   Expected_q=0011
  PASS 
=========================================================================
[time=1396] MONITOR: rst=0 q=0111 
[time=1396] Actual_q =0111   Expected_q=0111
  PASS 
=========================================================================
[time=1406] MONITOR: rst=0 q=1111 
[time=1406] Actual_q =1111   Expected_q=1111
  PASS 
=========================================================================
[time=1416] MONITOR: rst=0 q=1110 
[time=1416] Actual_q =1110   Expected_q=1110
  PASS 
=========================================================================
[time=1426] MONITOR: rst=0 q=1100 
[time=1426] Actual_q =1100   Expected_q=1100
  PASS 
=========================================================================
[time=1436] MONITOR: rst=0 q=1000 
[time=1436] Actual_q =1000   Expected_q=1000
  PASS 
=========================================================================
[time=1446] MONITOR: rst=0 q=0000 
[time=1446] Actual_q =0000   Expected_q=0000
  PASS 
=========================================================================
[time=1448] DRIVER: rst=0 
[time=1449] MONITOR: rst=1 q=0000 
[time=1449] Actual_q =0000   Expected_q=0000
  PASS 
=========================================================================
[time=1456] MONITOR: rst=1 q=0000 
[time=1456] Actual_q =0000   Expected_q=0000
  PASS 
=========================================================================
[time=1462] DRIVER: rst=0 
[time=1466] MONITOR: rst=0 q=0001 
[time=1466] Actual_q =0001   Expected_q=0001
  PASS 
=========================================================================
[time=1476] MONITOR: rst=0 q=0011 
[time=1476] Actual_q =0011   Expected_q=0011
  PASS 
=========================================================================
[time=1486] MONITOR: rst=0 q=0111 
[time=1486] Actual_q =0111   Expected_q=0111
  PASS 
=========================================================================
[time=1496] MONITOR: rst=0 q=1111 
[time=1496] Actual_q =1111   Expected_q=1111
  PASS 
=========================================================================
[time=1506] MONITOR: rst=0 q=1110 
[time=1506] Actual_q =1110   Expected_q=1110
  PASS 
=========================================================================
[time=1516] MONITOR: rst=0 q=1100 
[time=1516] Actual_q =1100   Expected_q=1100
  PASS 
=========================================================================
[time=1522] DRIVER: rst=0 
[time=1523] MONITOR: rst=1 q=0000 
[time=1523] Actual_q =0000   Expected_q=0000
  PASS 
=========================================================================
[time=1526] MONITOR: rst=1 q=0000 
[time=1526] Actual_q =0000   Expected_q=0000
  PASS 
=========================================================================
[time=1536] MONITOR: rst=1 q=0000 
[time=1536] Actual_q =0000   Expected_q=0000
  PASS 
=========================================================================
[time=1542] DRIVER: rst=0 
[time=1546] MONITOR: rst=0 q=0001 
[time=1546] Actual_q =0001   Expected_q=0001
  PASS 
=========================================================================
[time=1556] MONITOR: rst=0 q=0011 
[time=1556] Actual_q =0011   Expected_q=0011
  PASS 
=========================================================================
[time=1566] MONITOR: rst=0 q=0111 
[time=1566] Actual_q =0111   Expected_q=0111
  PASS 
=========================================================================
[time=1576] MONITOR: rst=0 q=1111 
[time=1576] Actual_q =1111   Expected_q=1111
  PASS 
=========================================================================
[time=1586] MONITOR: rst=0 q=1110 
[time=1586] Actual_q =1110   Expected_q=1110
  PASS 
=========================================================================
[time=1596] MONITOR: rst=0 q=1100 
[time=1596] Actual_q =1100   Expected_q=1100
  PASS 
=========================================================================
[time=1606] MONITOR: rst=0 q=1000 
[time=1606] Actual_q =1000   Expected_q=1000
  PASS 
=========================================================================
[time=1607] DRIVER: rst=0 
[time=1608] MONITOR: rst=1 q=0000 
[time=1608] Actual_q =0000   Expected_q=0000
  PASS 
=========================================================================
[time=1616] MONITOR: rst=1 q=0000 
[time=1616] Actual_q =0000   Expected_q=0000
  PASS 
=========================================================================
[time=1622] DRIVER: rst=0 
[time=1626] MONITOR: rst=0 q=0001 
[time=1626] Actual_q =0001   Expected_q=0001
  PASS 
=========================================================================
[time=1636] MONITOR: rst=0 q=0011 
[time=1636] Actual_q =0011   Expected_q=0011
  PASS 
=========================================================================
[time=1646] MONITOR: rst=0 q=0111 
[time=1646] Actual_q =0111   Expected_q=0111
  PASS 
=========================================================================
[time=1656] MONITOR: rst=0 q=1111 
[time=1656] Actual_q =1111   Expected_q=1111
  PASS 
=========================================================================
[time=1666] MONITOR: rst=0 q=1110 
[time=1666] Actual_q =1110   Expected_q=1110
  PASS 
=========================================================================
[time=1676] DRIVER: rst=0 
[time=1676] MONITOR: rst=0 q=1100 
[time=1676] Actual_q =1100   Expected_q=1100
  PASS 
=========================================================================
[time=1686] DRIVER: rst=0 
[time=1686] MONITOR: rst=1 q=0000 
[time=1686] Actual_q =0000   Expected_q=0000
  PASS 
=========================================================================
[time=1696] MONITOR: rst=0 q=0001 
[time=1696] Actual_q =0001   Expected_q=0001
  PASS 
=========================================================================
[time=1706] MONITOR: rst=0 q=0011 
[time=1706] Actual_q =0011   Expected_q=0011
  PASS 
=========================================================================
[time=1716] MONITOR: rst=0 q=0111 
[time=1716] Actual_q =0111   Expected_q=0111
  PASS 
=========================================================================
[time=1726] MONITOR: rst=0 q=1111 
[time=1726] Actual_q =1111   Expected_q=1111
  PASS 
=========================================================================
[time=1736] MONITOR: rst=0 q=1110 
[time=1736] Actual_q =1110   Expected_q=1110
  PASS 
=========================================================================
[time=1746] MONITOR: rst=0 q=1100 
[time=1746] Actual_q =1100   Expected_q=1100
  PASS 
=========================================================================
[time=1756] MONITOR: rst=0 q=1000 
[time=1756] Actual_q =1000   Expected_q=1000
  PASS 
=========================================================================
[time=1765] DRIVER: rst=0 
[time=1766] MONITOR: rst=1 q=0000 
[time=1766] Actual_q =0000   Expected_q=0000
  PASS 
=========================================================================
[time=1776] MONITOR: rst=1 q=0000 
[time=1776] Actual_q =0000   Expected_q=0000
  PASS 
=========================================================================
[time=1781] DRIVER: rst=0 
[time=1786] MONITOR: rst=0 q=0001 
[time=1786] Actual_q =0001   Expected_q=0001
  PASS 
=========================================================================
[time=1796] MONITOR: rst=0 q=0011 
[time=1796] Actual_q =0011   Expected_q=0011
  PASS 
=========================================================================
[time=1806] MONITOR: rst=0 q=0111 
[time=1806] Actual_q =0111   Expected_q=0111
  PASS 
=========================================================================
[time=1816] MONITOR: rst=0 q=1111 
[time=1816] Actual_q =1111   Expected_q=1111
  PASS 
=========================================================================
[time=1826] MONITOR: rst=0 q=1110 
[time=1826] Actual_q =1110   Expected_q=1110
  PASS 
=========================================================================
[time=1836] MONITOR: rst=0 q=1100 
[time=1836] Actual_q =1100   Expected_q=1100
  PASS 
=========================================================================
[time=1844] DRIVER: rst=0 
[time=1845] MONITOR: rst=1 q=0000 
[time=1845] Actual_q =0000   Expected_q=0000
  PASS 
=========================================================================
[time=1856] MONITOR: rst=1 q=0000 
[time=1856] Actual_q =0000   Expected_q=0000
  PASS 
=========================================================================
[time=1861] DRIVER: rst=0 
[time=1866] MONITOR: rst=0 q=0001 
[time=1866] Actual_q =0001   Expected_q=0001
  PASS 
=========================================================================
[time=1876] MONITOR: rst=0 q=0011 
[time=1876] Actual_q =0011   Expected_q=0011
  PASS 
=========================================================================
[time=1886] MONITOR: rst=0 q=0111 
[time=1886] Actual_q =0111   Expected_q=0111
  PASS 
=========================================================================
[time=1896] MONITOR: rst=0 q=1111 
[time=1896] Actual_q =1111   Expected_q=1111
  PASS 
=========================================================================
[time=1906] MONITOR: rst=0 q=1110 
[time=1906] Actual_q =1110   Expected_q=1110
  PASS 
=========================================================================
[time=1916] MONITOR: rst=0 q=1100 
[time=1916] Actual_q =1100   Expected_q=1100
  PASS 
=========================================================================
[time=1926] MONITOR: rst=0 q=1000 
[time=1926] Actual_q =1000   Expected_q=1000
  PASS 
=========================================================================
[time=1933] DRIVER: rst=0 
[time=1934] MONITOR: rst=1 q=0000 
[time=1934] Actual_q =0000   Expected_q=0000
  PASS 
=========================================================================
[time=1936] MONITOR: rst=1 q=0000 
[time=1936] Actual_q =0000   Expected_q=0000
  PASS 
=========================================================================
[time=1946] MONITOR: rst=1 q=0000 
[time=1946] Actual_q =0000   Expected_q=0000
  PASS 
=========================================================================
[time=1951] DRIVER: rst=0 
[time=1956] MONITOR: rst=0 q=0001 
[time=1956] Actual_q =0001   Expected_q=0001
  PASS 
=========================================================================
[time=1966] MONITOR: rst=0 q=0011 
[time=1966] Actual_q =0011   Expected_q=0011
  PASS 
=========================================================================
[time=1976] MONITOR: rst=0 q=0111 
[time=1976] Actual_q =0111   Expected_q=0111
  PASS 
=========================================================================
[time=1986] MONITOR: rst=0 q=1111 
[time=1986] Actual_q =1111   Expected_q=1111
  PASS 
=========================================================================
[time=1996] MONITOR: rst=0 q=1110 
[time=1996] Actual_q =1110   Expected_q=1110
  PASS 
=========================================================================
[time=2006] DRIVER: rst=0 
[time=2006] MONITOR: rst=0 q=1100 
[time=2006] Actual_q =1100   Expected_q=1100
  PASS 
=========================================================================
[time=2016] MONITOR: rst=1 q=0000 
[time=2016] Actual_q =0000   Expected_q=0000
  PASS 
=========================================================================
[time=2026] DRIVER: rst=0 
[time=2026] MONITOR: rst=1 q=0000 
[time=2026] Actual_q =0000   Expected_q=0000
  PASS 
=========================================================================
[time=2036] MONITOR: rst=0 q=0001 
