Verification_sv/05.FIFO/2.ASYNCHRONOUS_FIFO/OUTPUT.txt
QuestaSim-64 qrun 2025.2 Utility 2025.05 May 31 2025
Start time: 05:15:14 on Jul 17,2026
qrun -batch -access=rw+/. -timescale 1ns/1ns -coverage -mfcu design.sv testbench.sv -coverage -voptargs=""+acc"" -do "run.do" 
** Note: (qrun-220) 'modelsim.ini' is used as the ini file.
Creating library 'qrun.out/work'.
QuestaSim-64 vlog 2025.2 Compiler 2025.05 May 31 2025
Start time: 05:15:14 on Jul 17,2026
vlog -timescale 1ns/1ns -mfcu design.sv testbench.sv -work qrun.out/work -statslog qrun.out/stats_log -csession=incr 
** Note: (vlog-220) 'modelsim.ini' is used as the ini file.
-- Compiling module asynchronus_fifo
-- Compiling module fifo_memory
-- Compiling module rptr_handler
-- Compiling module synchronizer_2ff
-- Compiling module wptr_handler
-- Compiling package design_sv_unit
** Warning: coverage.sv(98): (vlog-2727) One of implicit coverpoints at line '98' is a duplicate of the explicitly declared coverpoint 'ren' at line '71'. The coverage score may be skewed as a result.
-- Compiling interface fifo
-- Compiling module testbench

Top level modules:
	testbench
End time: 05:15:14 on Jul 17,2026, Elapsed time: 0:00:00
Errors: 0, Warnings: 1
QuestaSim-64 vopt 2025.2 Compiler 2025.05 May 31 2025
** Warning: (vopt-10587) Some optimizations are turned off because the +acc switch is in effect. This will cause your simulation to run slowly. Please use -access/-debug to maintain needed visibility. The +acc switch would be deprecated in a future release.
Start time: 05:15:14 on Jul 17,2026
vopt -access=rw+/. -timescale 1ns/1ns -mfcu "+acc" -findtoplevels qrun.out/work+2+ -work qrun.out/work -statslog qrun.out/stats_log -csession=incr -o qrun_opt -csessionid=3 
** Note: (vopt-220) 'modelsim.ini' is used as the ini file.

Top level modules:
	testbench

Analyzing design...
-- Loading module testbench
-- Loading interface fifo
-- Loading module asynchronus_fifo
-- Loading module synchronizer_2ff
-- Loading module wptr_handler
-- Loading module rptr_handler
-- Loading module fifo_memory
Optimizing 9 design-units (inlining 0/8 module instances):
-- Optimizing package design_sv_unit(fast)
** Warning: coverage.sv(98): (vopt-2727) One of implicit coverpoints at line '98' is a duplicate of the explicitly declared coverpoint 'ren' at line '71'. The coverage score may be skewed as a result.
-- Optimizing interface fifo(fast__2)
-- Optimizing module asynchronus_fifo(fast)
-- Optimizing module testbench(fast)
-- Optimizing module fifo_memory(fast)
-- Optimizing module wptr_handler(fast)
-- Optimizing module rptr_handler(fast)
-- Optimizing module synchronizer_2ff(fast)
-- Optimizing interface fifo(fast)
Optimized design name is qrun_opt
End time: 05:15:15 on Jul 17,2026, Elapsed time: 0:00:01
Errors: 0, Warnings: 2
# ** Note: (vsim-220) 'modelsim.ini' is used as the ini file.
# vsim -batch -lib qrun.out/work -do "coverage save -onexit cov_$Sv_Seed.ucdb" -do "run.do" -statslog qrun.out/stats_log qrun_opt -appendlog -l qrun.log 
# Start time: 05:15:15 on Jul 17,2026
# //  Questa Sim-64
# //  Version 2025.2 linux_x86_64 May 31 2025
# //
# // Unpublished work. Copyright 2025 Siemens
# //
# // This material contains trade secrets or otherwise confidential information
# // owned by Siemens Industry Software Inc. or its affiliates (collectively,
# // "SISW"), or its licensors. Access to and use of this information is strictly
# // limited as set forth in the Customer's applicable agreements with SISW.
# //
# // This material may not be copied, distributed, or otherwise disclosed outside
# // of the Customer's facilities without the express written permission of SISW,
# // and may not be used in any way not expressly authorized by SISW.
# //
# Loading sv_std.std
# Loading work.design_sv_unit(fast)
# Loading work.testbench(fast)
# Loading work.fifo(fast__2)
# Loading work.asynchronus_fifo(fast)
# Loading work.synchronizer_2ff(fast)
# Loading work.wptr_handler(fast)
# Loading work.rptr_handler(fast)
# Loading work.fifo_memory(fast)
# Loading work.fifo(fast)
# 
# coverage save -onexit cov_$Sv_Seed.ucdb
# do run.do
# =====================================================================================
#                      ASYNCHRONOUS FIFO VERIFICATION IN SV                   
# =====================================================================================
# =======================
#        write only
# =======================
# [time=15] MONITOR[READ] : r_reset=1 | read_enable=0  | data_out=  0 |empty=1 
# [time=20] DRIVER[READ]  : r_reset=0 | read_enable=0  
# [time=20] DRIVER [WRITE]: w_reset=0 | write_enable=1 | data_in =150 | 
# [time=25] MONITOR[READ] : r_reset=1 | read_enable=0  | data_out=  0 |empty=1 
# [time=30] DRIVER[READ]  : r_reset=0 | read_enable=0  
# [time=30] MONITOR[WRITE]: w_reset=1 | write_enable=1 | data_in=150 |full=0 
# | coverage_w=14.29%       |
# | coverage_R=26.92%      |
# [time=35] MONITOR[READ] : r_reset=0 | read_enable=0  | data_out=  0 |empty=1 
# [time=40] DRIVER[READ]  : r_reset=0 | read_enable=0  
# [time=40] DRIVER [WRITE]: w_reset=0 | write_enable=1 | data_in =247 | 
# [time=45] MONITOR[READ] : r_reset=0 | read_enable=0  | data_out=  0 |empty=1 
# [time=50] DRIVER[READ]  : r_reset=0 | read_enable=0  
# [time=50] MONITOR[WRITE]: w_reset=0 | write_enable=1 | data_in=247 |full=0 
# [time=50] SCOREBOARD write operation sucessful! ------------------------------------------------->size=1 q='{247}
#                       +------------------+-------------------+
# [time=50] SCOREBOARD | Actual_full =0   | Expected_full =0  |
#                       | Actual_empty=0   | Expected_empty=1  |
#                       +------------------+-------------------+
# | coverage_w=26.19%       |
# | coverage_R=26.92%      |
# [time=55] MONITOR[READ] : r_reset=0 | read_enable=0  | data_out=  0 |empty=1 
# [time=60] DRIVER[READ]  : r_reset=0 | read_enable=0  
# [time=60] DRIVER [WRITE]: w_reset=0 | write_enable=1 | data_in =247 | 
# [time=65] MONITOR[READ] : r_reset=0 | read_enable=0  | data_out=  0 |empty=1 
# [time=70] DRIVER[READ]  : r_reset=0 | read_enable=0  
# [time=70] MONITOR[WRITE]: w_reset=0 | write_enable=1 | data_in=247 |full=0 
# [time=70] SCOREBOARD write operation sucessful! ------------------------------------------------->size=2 q='{247, 247}
#                       +------------------+-------------------+
# [time=70] SCOREBOARD | Actual_full =0   | Expected_full =0  |
#                       | Actual_empty=0   | Expected_empty=0  |
#                       +------------------+-------------------+
# | coverage_w=27.14%       |
# | coverage_R=32.69%      |
# [time=75] MONITOR[READ] : r_reset=0 | read_enable=0  | data_out=  0 |empty=1 
# [time=80] DRIVER[READ]  : r_reset=0 | read_enable=0  
# [time=80] DRIVER [WRITE]: w_reset=0 | write_enable=1 | data_in =220 | 
# 
# 
# 
# =======================
#   full condition check
# =======================
# [time=85] MONITOR[READ] : r_reset=0 | read_enable=0  | data_out=  0 |empty=0 
# [time=90] DRIVER[READ]  : r_reset=0 | read_enable=0  
# [time=90] MONITOR[WRITE]: w_reset=0 | write_enable=1 | data_in=220 |full=0 
# [time=90] SCOREBOARD write operation sucessful! ------------------------------------------------->size=3 q='{247, 247, 220}
#                       +------------------+-------------------+
# [time=90] SCOREBOARD | Actual_full =0   | Expected_full =0  |
#                       | Actual_empty=0   | Expected_empty=0  |
#                       +------------------+-------------------+
# | coverage_w=28.10%       |
# | coverage_R=32.69%      |
# [time=95] MONITOR[READ] : r_reset=0 | read_enable=0  | data_out=  0 |empty=0 
# [time=100] DRIVER[READ]  : r_reset=0 | read_enable=0  
# [time=100] DRIVER [WRITE]: w_reset=0 | write_enable=1 | data_in = 94 | 
# [time=105] MONITOR[READ] : r_reset=0 | read_enable=0  | data_out=  0 |empty=0 
# [time=110] DRIVER[READ]  : r_reset=0 | read_enable=0  
# [time=110] MONITOR[WRITE]: w_reset=0 | write_enable=1 | data_in= 94 |full=0 
# [time=110] SCOREBOARD write operation sucessful! ------------------------------------------------->size=4 q='{247, 247, 220, 94}
#                       +------------------+-------------------+
# [time=110] SCOREBOARD | Actual_full =0   | Expected_full =0  |
#                       | Actual_empty=0   | Expected_empty=0  |
#                       +------------------+-------------------+
# | coverage_w=33.81%       |
# | coverage_R=32.69%      |
# [time=115] MONITOR[READ] : r_reset=0 | read_enable=0  | data_out=  0 |empty=0 
# [time=120] DRIVER[READ]  : r_reset=0 | read_enable=0  
# [time=120] DRIVER [WRITE]: w_reset=0 | write_enable=1 | data_in =  5 | 
# [time=125] MONITOR[READ] : r_reset=0 | read_enable=0  | data_out=  0 |empty=0 
# [time=130] DRIVER[READ]  : r_reset=0 | read_enable=0  
# [time=130] MONITOR[WRITE]: w_reset=0 | write_enable=1 | data_in=  5 |full=0 
# [time=130] SCOREBOARD write operation sucessful! ------------------------------------------------->size=5 q='{247, 247, 220, 94, 5}
#                       +------------------+-------------------+
# [time=130] SCOREBOARD | Actual_full =0   | Expected_full =0  |
#                       | Actual_empty=0   | Expected_empty=0  |
#                       +------------------+-------------------+
# | coverage_w=39.52%       |
# | coverage_R=32.69%      |
# [time=135] MONITOR[READ] : r_reset=0 | read_enable=0  | data_out=  0 |empty=0 
# [time=140] DRIVER[READ]  : r_reset=0 | read_enable=0  
# [time=140] DRIVER [WRITE]: w_reset=0 | write_enable=1 | data_in = 35 | 
# [time=145] MONITOR[READ] : r_reset=0 | read_enable=0  | data_out=  0 |empty=0 
# [time=150] DRIVER[READ]  : r_reset=0 | read_enable=0  
# [time=150] MONITOR[WRITE]: w_reset=0 | write_enable=1 | data_in= 35 |full=0 
# [time=150] SCOREBOARD write operation sucessful! ------------------------------------------------->size=6 q='{247, 247, 220, 94, 5, 35}
#                       +------------------+-------------------+
# [time=150] SCOREBOARD | Actual_full =0   | Expected_full =0  |
#                       | Actual_empty=0   | Expected_empty=0  |
#                       +------------------+-------------------+
# | coverage_w=40.48%       |
# | coverage_R=32.69%      |
# [time=155] MONITOR[READ] : r_reset=0 | read_enable=0  | data_out=  0 |empty=0 
# [time=160] DRIVER[READ]  : r_reset=0 | read_enable=0  
# [time=160] DRIVER [WRITE]: w_reset=0 | write_enable=1 | data_in =129 | 
# [time=165] MONITOR[READ] : r_reset=0 | read_enable=0  | data_out=  0 |empty=0 
# [time=170] DRIVER[READ]  : r_reset=0 | read_enable=0  
# [time=170] MONITOR[WRITE]: w_reset=0 | write_enable=1 | data_in=129 |full=0 
# [time=170] SCOREBOARD write operation sucessful! ------------------------------------------------->size=7 q='{247, 247, 220, 94, 5, 35, 129}
#                       +------------------+-------------------+
# [time=170] SCOREBOARD | Actual_full =0   | Expected_full =0  |
#                       | Actual_empty=0   | Expected_empty=0  |
#                       +------------------+-------------------+
# | coverage_w=41.43%       |
# | coverage_R=36.54%      |
# [time=175] MONITOR[READ] : r_reset=0 | read_enable=0  | data_out=  0 |empty=0 
# [time=180] DRIVER[READ]  : r_reset=0 | read_enable=0  
# [time=180] DRIVER [WRITE]: w_reset=0 | write_enable=1 | data_in = 72 | 
# [time=185] MONITOR[READ] : r_reset=0 | read_enable=0  | data_out=  0 |empty=0 
# [time=190] DRIVER[READ]  : r_reset=0 | read_enable=0  
# [time=190] MONITOR[WRITE]: w_reset=0 | write_enable=1 | data_in= 72 |full=0 
# [time=190] SCOREBOARD write operation sucessful! ------------------------------------------------->size=8 q='{247, 247, 220, 94, 5, 35, 129, 72}
#                       +------------------+-------------------+
# [time=190] SCOREBOARD | Actual_full =0   | Expected_full =0  |
#                       | Actual_empty=0   | Expected_empty=0  |
#                       +------------------+-------------------+
# | coverage_w=42.38%       |
# | coverage_R=36.54%      |
# [time=195] MONITOR[READ] : r_reset=0 | read_enable=0  | data_out=  0 |empty=0 
# [time=200] DRIVER[READ]  : r_reset=0 | read_enable=0  
# [time=200] DRIVER [WRITE]: w_reset=0 | write_enable=1 | data_in =152 | 
# [time=205] MONITOR[READ] : r_reset=0 | read_enable=0  | data_out=  0 |empty=0 
# [time=210] DRIVER[READ]  : r_reset=0 | read_enable=0  
# [time=210] MONITOR[WRITE]: w_reset=0 | write_enable=1 | data_in=152 |full=0 
# [time=210] SCOREBOARD write operation sucessful! ------------------------------------------------->size=9 q='{247, 247, 220, 94, 5, 35, 129, 72, 152}
#                       +------------------+-------------------+
# [time=210] SCOREBOARD | Actual_full =0   | Expected_full =0  |
#                       | Actual_empty=0   | Expected_empty=0  |
#                       +------------------+-------------------+
# | coverage_w=43.33%       |
# | coverage_R=36.54%      |
# [time=215] MONITOR[READ] : r_reset=0 | read_enable=0  | data_out=  0 |empty=0 
# [time=220] DRIVER[READ]  : r_reset=0 | read_enable=0  
# [time=220] DRIVER [WRITE]: w_reset=0 | write_enable=1 | data_in =223 | 
# [time=225] MONITOR[READ] : r_reset=0 | read_enable=0  | data_out=  0 |empty=0 
# [time=230] DRIVER[READ]  : r_reset=0 | read_enable=0  
# [time=230] MONITOR[WRITE]: w_reset=0 | write_enable=1 | data_in=223 |full=0 
# [time=230] SCOREBOARD write operation sucessful! ------------------------------------------------->size=10 q='{247, 247, 220, 94, 5, 35, 129, 72, 152, 223}
#                       +------------------+-------------------+
# [time=230] SCOREBOARD | Actual_full =0   | Expected_full =0  |
#                       | Actual_empty=0   | Expected_empty=0  |
#                       +------------------+-------------------+
# | coverage_w=44.29%       |
# | coverage_R=36.54%      |
# [time=235] MONITOR[READ] : r_reset=0 | read_enable=0  | data_out=  0 |empty=0 
# [time=240] DRIVER[READ]  : r_reset=0 | read_enable=0  
# [time=240] DRIVER [WRITE]: w_reset=0 | write_enable=1 | data_in =  5 | 
# [time=245] MONITOR[READ] : r_reset=0 | read_enable=0  | data_out=  0 |empty=0 
# [time=250] DRIVER[READ]  : r_reset=0 | read_enable=0  
# [time=250] MONITOR[WRITE]: w_reset=0 | write_enable=1 | data_in=  5 |full=0 
# [time=250] SCOREBOARD write operation sucessful! ------------------------------------------------->size=11 q='{247, 247, 220, 94, 5, 35, 129, 72, 152, 223, 5}
#                       +------------------+-------------------+
# [time=250] SCOREBOARD | Actual_full =0   | Expected_full =0  |
#                       | Actual_empty=0   | Expected_empty=0  |
#                       +------------------+-------------------+
# | coverage_w=45.24%       |
# | coverage_R=36.54%      |
# [time=255] MONITOR[READ] : r_reset=0 | read_enable=0  | data_out=  0 |empty=0 
# [time=260] DRIVER[READ]  : r_reset=0 | read_enable=0  
# [time=260] DRIVER [WRITE]: w_reset=0 | write_enable=1 | data_in =206 | 
# [time=265] MONITOR[READ] : r_reset=0 | read_enable=0  | data_out=  0 |empty=0 
# [time=270] DRIVER[READ]  : r_reset=0 | read_enable=0  
# [time=270] MONITOR[WRITE]: w_reset=0 | write_enable=1 | data_in=206 |full=0 
# [time=270] SCOREBOARD write operation sucessful! ------------------------------------------------->size=12 q='{247, 247, 220, 94, 5, 35, 129, 72, 152, 223, 5, 206}
#                       +------------------+-------------------+
# [time=270] SCOREBOARD | Actual_full =0   | Expected_full =0  |
#                       | Actual_empty=0   | Expected_empty=0  |
#                       +------------------+-------------------+
# | coverage_w=46.19%       |
# | coverage_R=36.54%      |
# [time=275] MONITOR[READ] : r_reset=0 | read_enable=0  | data_out=  0 |empty=0 
# [time=280] DRIVER[READ]  : r_reset=0 | read_enable=0  
# [time=280] DRIVER [WRITE]: w_reset=0 | write_enable=1 | data_in =146 | 
# [time=285] MONITOR[READ] : r_reset=0 | read_enable=0  | data_out=  0 |empty=0 
# [time=290] DRIVER[READ]  : r_reset=0 | read_enable=0  
# [time=290] MONITOR[WRITE]: w_reset=0 | write_enable=1 | data_in=146 |full=0 
# [time=290] SCOREBOARD write operation sucessful! ------------------------------------------------->size=13 q='{247, 247, 220, 94, 5, 35, 129, 72, 152, 223, 5, 206, 146}
#                       +------------------+-------------------+
# [time=290] SCOREBOARD | Actual_full =0   | Expected_full =0  |
#                       | Actual_empty=0   | Expected_empty=0  |
#                       +------------------+-------------------+
# | coverage_w=47.14%       |
# | coverage_R=36.54%      |
# [time=295] MONITOR[READ] : r_reset=0 | read_enable=0  | data_out=  0 |empty=0 
# [time=300] DRIVER[READ]  : r_reset=0 | read_enable=0  
# [time=300] DRIVER [WRITE]: w_reset=0 | write_enable=1 | data_in =132 | 
# [time=305] MONITOR[READ] : r_reset=0 | read_enable=0  | data_out=  0 |empty=0 
# [time=310] DRIVER[READ]  : r_reset=0 | read_enable=0  
# [time=310] MONITOR[WRITE]: w_reset=0 | write_enable=1 | data_in=132 |full=0 
# [time=310] SCOREBOARD write operation sucessful! ------------------------------------------------->size=14 q='{247, 247, 220, 94, 5, 35, 129, 72, 152, 223, 5, 206, 146, 132}
#                       +------------------+-------------------+
# [time=310] SCOREBOARD | Actual_full =0   | Expected_full =0  |
#                       | Actual_empty=0   | Expected_empty=0  |
#                       +------------------+-------------------+
# | coverage_w=62.38%       |
# | coverage_R=36.54%      |
# [time=315] MONITOR[READ] : r_reset=0 | read_enable=0  | data_out=  0 |empty=0 
# [time=320] DRIVER[READ]  : r_reset=0 | read_enable=0  
# [time=320] DRIVER [WRITE]: w_reset=0 | write_enable=1 | data_in =250 | 
# [time=325] MONITOR[READ] : r_reset=0 | read_enable=0  | data_out=  0 |empty=0 
# [time=330] DRIVER[READ]  : r_reset=0 | read_enable=0  
# [time=330] MONITOR[WRITE]: w_reset=0 | write_enable=1 | data_in=250 |full=0 
# [time=330] SCOREBOARD write operation sucessful! ------------------------------------------------->size=15 q='{247, 247, 220, 94, 5, 35, 129, 72, 152, 223, 5, 206, 146, 132, 250}
#                       +------------------+-------------------+
# [time=330] SCOREBOARD | Actual_full =0   | Expected_full =0  |
#                       | Actual_empty=0   | Expected_empty=0  |
#                       +------------------+-------------------+
# | coverage_w=63.33%       |
# | coverage_R=36.54%      |
# [time=335] MONITOR[READ] : r_reset=0 | read_enable=0  | data_out=  0 |empty=0 
# [time=340] DRIVER[READ]  : r_reset=0 | read_enable=0  
# [time=340] DRIVER [WRITE]: w_reset=0 | write_enable=1 | data_in =139 | 
# [time=345] MONITOR[READ] : r_reset=0 | read_enable=0  | data_out=  0 |empty=0 
# [time=350] DRIVER[READ]  : r_reset=0 | read_enable=0  
# [time=350] MONITOR[WRITE]: w_reset=0 | write_enable=1 | data_in=139 |full=0 
# [time=350] SCOREBOARD write operation sucessful! ------------------------------------------------->size=16 q='{247, 247, 220, 94, 5, 35, 129, 72, 152, 223, 5, 206, 146, 132, 250, 139}
#                       +------------------+-------------------+
# [time=350] SCOREBOARD | Actual_full =0   | Expected_full =0  |
#                       | Actual_empty=0   | Expected_empty=0  |
#                       +------------------+-------------------+
# | coverage_w=64.29%       |
# | coverage_R=36.54%      |
# [time=355] MONITOR[READ] : r_reset=0 | read_enable=0  | data_out=  0 |empty=0 
# [time=360] DRIVER[READ]  : r_reset=0 | read_enable=0  
# [time=360] DRIVER [WRITE]: w_reset=0 | write_enable=1 | data_in =237 | 
# [time=365] MONITOR[READ] : r_reset=0 | read_enable=0  | data_out=  0 |empty=0 
# [time=370] DRIVER[READ]  : r_reset=0 | read_enable=0  
# [time=370] MONITOR[WRITE]: w_reset=0 | write_enable=1 | data_in=237 |full=1 
# [time=370] SCOREBOARD write operation failed due to full! ------------------------------------------------>size=16 q='{247, 247, 220, 94, 5, 35, 129, 72, 152, 223, 5, 206, 146, 132, 250, 139}
# --------------------------------------------------------------------------------------------------
# | coverage_w=78.57%       |
# | coverage_R=44.23%      |
# [time=375] MONITOR[READ] : r_reset=0 | read_enable=0  | data_out=  0 |empty=0 
# [time=380] DRIVER[READ]  : r_reset=0 | read_enable=0  
# [time=380] DRIVER [WRITE]: w_reset=0 | write_enable=1 | data_in = 47 | 
# [time=385] MONITOR[READ] : r_reset=0 | read_enable=0  | data_out=  0 |empty=0 
# [time=390] DRIVER[READ]  : r_reset=0 | read_enable=0  
# [time=390] MONITOR[WRITE]: w_reset=0 | write_enable=1 | data_in= 47 |full=1 
# [time=390] SCOREBOARD write operation failed due to full! ------------------------------------------------>size=16 q='{247, 247, 220, 94, 5, 35, 129, 72, 152, 223, 5, 206, 146, 132, 250, 139}
# --------------------------------------------------------------------------------------------------
# | coverage_w=78.57%       |
# | coverage_R=44.23%      |
# [time=395] MONITOR[READ] : r_reset=0 | read_enable=0  | data_out=  0 |empty=0 
# [time=400] DRIVER[READ]  : r_reset=0 | read_enable=0  
# [time=400] DRIVER [WRITE]: w_reset=0 | write_enable=1 | data_in = 90 | 
# [time=405] MONITOR[READ] : r_reset=0 | read_enable=0  | data_out=  0 |empty=0 
# [time=410] DRIVER[READ]  : r_reset=0 | read_enable=0  
# [time=410] MONITOR[WRITE]: w_reset=0 | write_enable=1 | data_in= 90 |full=1 
# [time=410] SCOREBOARD write operation failed due to full! ------------------------------------------------>size=16 q='{247, 247, 220, 94, 5, 35, 129, 72, 152, 223, 5, 206, 146, 132, 250, 139}
# --------------------------------------------------------------------------------------------------
# | coverage_w=78.57%       |
# | coverage_R=44.23%      |
# [time=415] MONITOR[READ] : r_reset=0 | read_enable=0  | data_out=  0 |empty=0 
# [time=420] DRIVER[READ]  : r_reset=0 | read_enable=0  
# [time=420] DRIVER [WRITE]: w_reset=0 | write_enable=1 | data_in =195 | 
# [time=425] MONITOR[READ] : r_reset=0 | read_enable=0  | data_out=  0 |empty=0 
# [time=430] DRIVER[READ]  : r_reset=0 | read_enable=0  
# [time=430] MONITOR[WRITE]: w_reset=0 | write_enable=1 | data_in=195 |full=1 
# [time=430] SCOREBOARD write operation failed due to full! ------------------------------------------------>size=16 q='{247, 247, 220, 94, 5, 35, 129, 72, 152, 223, 5, 206, 146, 132, 250, 139}
# --------------------------------------------------------------------------------------------------
# | coverage_w=78.57%       |
# | coverage_R=44.23%      |
# [time=435] MONITOR[READ] : r_reset=0 | read_enable=0  | data_out=  0 |empty=0 
# [time=440] DRIVER[READ]  : r_reset=0 | read_enable=0  
# [time=440] DRIVER [WRITE]: w_reset=0 | write_enable=1 | data_in = 32 | 
# [time=445] MONITOR[READ] : r_reset=0 | read_enable=0  | data_out=  0 |empty=0 
# [time=450] DRIVER[READ]  : r_reset=0 | read_enable=0  
# [time=450] MONITOR[WRITE]: w_reset=0 | write_enable=1 | data_in= 32 |full=1 
# [time=450] SCOREBOARD write operation failed due to full! ------------------------------------------------>size=16 q='{247, 247, 220, 94, 5, 35, 129, 72, 152, 223, 5, 206, 146, 132, 250, 139}
# --------------------------------------------------------------------------------------------------
# | coverage_w=78.57%       |
# | coverage_R=44.23%      |
# [time=455] MONITOR[READ] : r_reset=0 | read_enable=0  | data_out=  0 |empty=0 
# [time=460] DRIVER[READ]  : r_reset=0 | read_enable=0  
# [time=460] DRIVER [WRITE]: w_reset=0 | write_enable=1 | data_in = 11 | 
# [time=465] MONITOR[READ] : r_reset=0 | read_enable=0  | data_out=  0 |empty=0 
# [time=470] DRIVER[READ]  : r_reset=0 | read_enable=0  
# [time=470] MONITOR[WRITE]: w_reset=0 | write_enable=1 | data_in= 11 |full=1 
# [time=470] SCOREBOARD write operation failed due to full! ------------------------------------------------>size=16 q='{247, 247, 220, 94, 5, 35, 129, 72, 152, 223, 5, 206, 146, 132, 250, 139}
# --------------------------------------------------------------------------------------------------
# | coverage_w=78.57%       |
# | coverage_R=44.23%      |
# [time=475] MONITOR[READ] : r_reset=0 | read_enable=0  | data_out=  0 |empty=0 
# [time=480] DRIVER[READ]  : r_reset=0 | read_enable=0  
# [time=480] DRIVER [WRITE]: w_reset=0 | write_enable=1 | data_in = 72 | 
# 
# 
# 
# =======================
#         read only      
# =======================
# [time=485] MONITOR[READ] : r_reset=0 | read_enable=0  | data_out=  0 |empty=0 
# [time=490] DRIVER[READ]  : r_reset=0 | read_enable=0  
# [time=490] MONITOR[WRITE]: w_reset=0 | write_enable=1 | data_in= 72 |full=1 
# [time=490] SCOREBOARD write operation failed due to full! ------------------------------------------------>size=16 q='{247, 247, 220, 94, 5, 35, 129, 72, 152, 223, 5, 206, 146, 132, 250, 139}
# --------------------------------------------------------------------------------------------------
# | coverage_w=78.57%       |
# | coverage_R=44.23%      |
# [time=495] MONITOR[READ] : r_reset=0 | read_enable=0  | data_out=  0 |empty=0 
# [time=500] DRIVER[READ]  : r_reset=0 | read_enable=1  
# [time=500] DRIVER [WRITE]: w_reset=0 | write_enable=0 | data_in =197 | 
# 
# 
# 
# =======================
#           empty        
# =======================
# [time=505] MONITOR[READ] : r_reset=0 | read_enable=1  | data_out=  0 |empty=0 
# [time=505] SCOREBOARD read operation successful! ------------------------------------------------>size=15  q='{247, 220, 94, 5, 35, 129, 72, 152, 223, 5, 206, 146, 132, 250, 139}
#                       +------------------+-------------------+
#                       | Actual_data =  0 | Expected_data =  0|
# [time=505] SCOREBOARD | Actual_full =0   | Expected_full =0  |
#                       | Actual_empty=0   | Expected_empty=0  |
#                       +------------------+-------------------+
# =>|PASS|<=
# ======================================================================================================
# [time=510] DRIVER[READ]  : r_reset=0 | read_enable=1  
# [time=510] MONITOR[WRITE]: w_reset=0 | write_enable=0 | data_in=197 |full=1 
# [time=510] SCOREBOARD write operation failed due to full! ------------------------------------------------>size=15 q='{247, 220, 94, 5, 35, 129, 72, 152, 223, 5, 206, 146, 132, 250, 139}
# --------------------------------------------------------------------------------------------------
# | coverage_w=85.71%       |
# | coverage_R=50.00%      |
# [time=515] MONITOR[READ] : r_reset=0 | read_enable=1  | data_out=247 |empty=0 
# [time=515] SCOREBOARD read operation successful! ------------------------------------------------>size=14  q='{220, 94, 5, 35, 129, 72, 152, 223, 5, 206, 146, 132, 250, 139}
#                       +------------------+-------------------+
#                       | Actual_data =247 | Expected_data =247|
# [time=515] SCOREBOARD | Actual_full =0   | Expected_full =0  |
#                       | Actual_empty=0   | Expected_empty=0  |
#                       +------------------+-------------------+
# =>|PASS|<=
# ======================================================================================================
# [time=520] DRIVER[READ]  : r_reset=0 | read_enable=1  
# [time=520] DRIVER [WRITE]: w_reset=0 | write_enable=0 | data_in = 23 | 
# [time=525] MONITOR[READ] : r_reset=0 | read_enable=1  | data_out=247 |empty=0 
# [time=525] SCOREBOARD read operation successful! ------------------------------------------------>size=13  q='{94, 5, 35, 129, 72, 152, 223, 5, 206, 146, 132, 250, 139}
#                       +------------------+-------------------+
#                       | Actual_data =247 | Expected_data =247|
# [time=525] SCOREBOARD | Actual_full =0   | Expected_full =0  |
#                       | Actual_empty=0   | Expected_empty=0  |
#                       +------------------+-------------------+
# =>|PASS|<=
# ======================================================================================================
# [time=530] DRIVER[READ]  : r_reset=0 | read_enable=1  
# [time=530] MONITOR[WRITE]: w_reset=0 | write_enable=0 | data_in= 23 |full=1 
# [time=530] SCOREBOARD write operation failed due to full! ------------------------------------------------>size=13 q='{94, 5, 35, 129, 72, 152, 223, 5, 206, 146, 132, 250, 139}
# --------------------------------------------------------------------------------------------------
# | coverage_w=85.71%       |
# | coverage_R=50.00%      |
# [time=535] MONITOR[READ] : r_reset=0 | read_enable=1  | data_out=220 |empty=0 
# [time=535] SCOREBOARD read operation successful! ------------------------------------------------>size=12  q='{5, 35, 129, 72, 152, 223, 5, 206, 146, 132, 250, 139}
#                       +------------------+-------------------+
#                       | Actual_data =220 | Expected_data =220|
# [time=535] SCOREBOARD | Actual_full =0   | Expected_full =0  |
#                       | Actual_empty=0   | Expected_empty=0  |
#                       +------------------+-------------------+
# =>|PASS|<=
# ======================================================================================================
# [time=540] DRIVER[READ]  : r_reset=0 | read_enable=1  
# [time=540] DRIVER [WRITE]: w_reset=0 | write_enable=0 | data_in = 79 | 
# [time=545] MONITOR[READ] : r_reset=0 | read_enable=1  | data_out= 94 |empty=0 
# [time=545] SCOREBOARD read operation successful! ------------------------------------------------>size=11  q='{35, 129, 72, 152, 223, 5, 206, 146, 132, 250, 139}
#                       +------------------+-------------------+
#                       | Actual_data = 94 | Expected_data = 94|
# [time=545] SCOREBOARD | Actual_full =0   | Expected_full =0  |
#                       | Actual_empty=0   | Expected_empty=0  |
#                       +------------------+-------------------+
# =>|PASS|<=
# ======================================================================================================
# [time=550] DRIVER[READ]  : r_reset=0 | read_enable=1  
# [time=550] MONITOR[WRITE]: w_reset=0 | write_enable=0 | data_in= 79 |full=1 
# [time=550] SCOREBOARD write operation failed due to full! ------------------------------------------------>size=11 q='{35, 129, 72, 152, 223, 5, 206, 146, 132, 250, 139}
# --------------------------------------------------------------------------------------------------
# | coverage_w=85.71%       |
# | coverage_R=50.00%      |
# [time=555] MONITOR[READ] : r_reset=0 | read_enable=1  | data_out=  5 |empty=0 
# [time=555] SCOREBOARD read operation successful! ------------------------------------------------>size=10  q='{129, 72, 152, 223, 5, 206, 146, 132, 250, 139}
#                       +------------------+-------------------+
#                       | Actual_data =  5 | Expected_data =  5|
# [time=555] SCOREBOARD | Actual_full =0   | Expected_full =0  |
#                       | Actual_empty=0   | Expected_empty=0  |
#                       +------------------+-------------------+
# =>|PASS|<=
# ======================================================================================================
# [time=560] DRIVER[READ]  : r_reset=0 | read_enable=1  
# [time=560] DRIVER [WRITE]: w_reset=0 | write_enable=0 | data_in =231 | 
# [time=565] MONITOR[READ] : r_reset=0 | read_enable=1  | data_out= 35 |empty=0 
# [time=565] SCOREBOARD read operation successful! ------------------------------------------------>size=9  q='{72, 152, 223, 5, 206, 146, 132, 250, 139}
#                       +------------------+-------------------+
#                       | Actual_data = 35 | Expected_data = 35|
# [time=565] SCOREBOARD | Actual_full =0   | Expected_full =0  |
#                       | Actual_empty=0   | Expected_empty=0  |
#                       +------------------+-------------------+
# =>|PASS|<=
# ======================================================================================================
# [time=570] DRIVER[READ]  : r_reset=0 | read_enable=1  
# [time=570] MONITOR[WRITE]: w_reset=0 | write_enable=0 | data_in=231 |full=0 
# | coverage_w=85.71%       |
# | coverage_R=50.00%      |
# [time=575] MONITOR[READ] : r_reset=0 | read_enable=1  | data_out=129 |empty=0 
# [time=575] SCOREBOARD read operation successful! ------------------------------------------------>size=8  q='{152, 223, 5, 206, 146, 132, 250, 139}
#                       +------------------+-------------------+
#                       | Actual_data =129 | Expected_data =129|
# [time=575] SCOREBOARD | Actual_full =0   | Expected_full =0  |
#                       | Actual_empty=0   | Expected_empty=0  |
#                       +------------------+-------------------+
# =>|PASS|<=
# ======================================================================================================
